…
nynoaa_df = ny_noaa %>% 
  separate(date, into = c("year", "month", "day"), convert = TRUE) %>% 
    # Create separate variables for year, month, and day
  mutate( # Ensure observations for temperature, precipitation, and snowfall are given in reasonable units
    tmax = as.numeric(tmax),
    tmin = as.numeric(tmin)
    )

nynoaa_df %>% 
  count(snow) %>%
  arrange(desc(n))
```

    ## # A tibble: 282 × 2
    ##     snow       n
    ##    <int>   <int>
    ##  1     0 2008508
    ##  2    NA  381221
    ##  3    25   31022
    ##  4    13   23095
    ##  5    51   18274
    ##  6    76   10173
    ##  7     8    9962
    ##  8     5    9748
    ##  9    38    9197
    ## 10     3    8790
    ## # ℹ 272 more rows
…
    ## Rows: 250 Columns: 5
    ## ── Column specification ────────────────────────────────────────────────────────
    ## Delimiter: ","
    ## dbl (5): SEQN, sex, age, BMI, education
    ## 
    ## ℹ Use `spec()` to retrieve the full column specification for this data.
    ## ℹ Specify the column types or set `show_col_types = FALSE` to quiet this message.

``` r
demograph
```

    ## # A tibble: 250 × 5
    ##     seqn   sex   age   bmi education
    ##    <dbl> <dbl> <dbl> <dbl>     <dbl>
    ##  1 62161     1    22  23.3         2
    ##  2 62164     2    44  23.2         3
    ##  3 62169     1    21  20.1         2
    ##  4 62174     1    80  33.9         3
    ##  5 62177     1    51  20.1         2
    ##  6 62178     1    80  28.5         2
    ##  7 62180     1    35  27.9         3
    ##  8 62184     1    26  22.1         2
    ##  9 62186     2    17  22.9        NA
    ## 10 62189     2    30  22.4         3
    ## # ℹ 240 more rows
…
    ## Rows: 250 Columns: 1441
    ## ── Column specification ────────────────────────────────────────────────────────
    ## Delimiter: ","
    ## dbl (1441): SEQN, min1, min2, min3, min4, min5, min6, min7, min8, min9, min1...
    ## 
    ## ℹ Use `spec()` to retrieve the full column specification for this data.
    ## ℹ Specify the column types or set `show_col_types = FALSE` to quiet this message.

``` r
accelerometer
```

    ## # A tibble: 250 × 1,441
    ##     seqn  min1  min2  min3  min4   min5   min6  min7   min8    min9  min10
    ##    <dbl> <dbl> <dbl> <dbl> <dbl>  <dbl>  <dbl> <dbl>  <dbl>   <dbl>  <dbl>
    ##  1 62161 1.11  3.12  1.47  0.938 1.60   0.145  2.10  0.509   1.63   1.20  
    ##  2 62164 1.92  1.67  2.38  0.935 2.59   5.22   2.39  4.90    1.97   3.13  
    ##  3 62169 5.85  5.18  4.76  6.48  6.85   7.24   6.12  7.48    5.47   6.49  
    ##  4 62174 5.42  3.48  3.72  3.81  6.85   4.45   0.561 1.61    0.698  2.72  
    ##  5 62177 6.14  8.06  9.99  6.60  4.57   2.78   7.10  7.25   10.1    7.49  
    ##  6 62178 0.167 0.429 0.131 1.20  0.0796 0.0487 0.106 0.0653  0.0564 0.0639
    ##  7 62180 0.039 0     0     0     0.369  0.265  0.506 0.638   0      0.011 
    ##  8 62184 1.55  2.81  3.86  4.76  6.10   7.61   4.74  6.73    5.42   4.24  
    ##  9 62186 3.08  2.54  2.63  2.12  1.14   1.68   2.84  2.72    2.13   2.18  
    ## 10 62189 2.81  0.195 0.163 0     0.144  0.180  0.870 0.214   0      0     
    ## # ℹ 240 more rows
    ## # ℹ 1,430 more variables: min11 <dbl>, min12 <dbl>, min13 <dbl>, min14 <dbl>,
    ## #   min15 <dbl>, min16 <dbl>, min17 <dbl>, min18 <dbl>, min19 <dbl>,
    ## #   min20 <dbl>, min21 <dbl>, min22 <dbl>, min23 <dbl>, min24 <dbl>,
    ## #   min25 <dbl>, min26 <dbl>, min27 <dbl>, min28 <dbl>, min29 <dbl>,
    ## #   min30 <dbl>, min31 <dbl>, min32 <dbl>, min33 <dbl>, min34 <dbl>,
    ## #   min35 <dbl>, min36 <dbl>, min37 <dbl>, min38 <dbl>, min39 <dbl>, …
``` r
demo_accel = left_join(demograph , accelerometer , by = "seqn") %>% 
    mutate ( # encode data with reasonable variable classes
    seqn = as.integer(seqn),
    sex = as.integer(sex),
    age = as.integer(age),
    education = as.integer(education)
  ) %>%
  filter(age >= 21) %>% # excluding participants less than 21 years of age
  drop_na("sex", "age", "bmi") # excluding those with missing demographic data

demo_accel
```

    ## # A tibble: 228 × 1,445
    ##     seqn   sex   age   bmi education  min1   min2   min3  min4   min5   min6
    ##    <int> <int> <int> <dbl>     <int> <dbl>  <dbl>  <dbl> <dbl>  <dbl>  <dbl>
    ##  1 62161     1    22  23.3         2 1.11  3.12   1.47   0.938 1.60   0.145 
    ##  2 62164     2    44  23.2         3 1.92  1.67   2.38   0.935 2.59   5.22  
    ##  3 62169     1    21  20.1         2 5.85  5.18   4.76   6.48  6.85   7.24  
    ##  4 62174     1    80  33.9         3 5.42  3.48   3.72   3.81  6.85   4.45  
    ##  5 62177     1    51  20.1         2 6.14  8.06   9.99   6.60  4.57   2.78  
    ##  6 62178     1    80  28.5         2 0.167 0.429  0.131  1.20  0.0796 0.0487
    ##  7 62180     1    35  27.9         3 0.039 0      0      0     0.369  0.265 
    ##  8 62184     1    26  22.1         2 1.55  2.81   3.86   4.76  6.10   7.61  
    ##  9 62189     2    30  22.4         3 2.81  0.195  0.163  0     0.144  0.180 
    ## 10 62199     1    57  28           3 0.031 0.0359 0.0387 0.079 0.109  0.262 
    ## # ℹ 218 more rows
    ## # ℹ 1,434 more variables: min7 <dbl>, min8 <dbl>, min9 <dbl>, min10 <dbl>,
    ## #   min11 <dbl>, min12 <dbl>, min13 <dbl>, min14 <dbl>, min15 <dbl>,
    ## #   min16 <dbl>, min17 <dbl>, min18 <dbl>, min19 <dbl>, min20 <dbl>,
    ## #   min21 <dbl>, min22 <dbl>, min23 <dbl>, min24 <dbl>, min25 <dbl>,
    ## #   min26 <dbl>, min27 <dbl>, min28 <dbl>, min29 <dbl>, min30 <dbl>,
    ## #   min31 <dbl>, min32 <dbl>, min33 <dbl>, min34 <dbl>, min35 <dbl>, …
…
    ## # A tibble: 2 × 2
    ##   rideable_type     n
    ##   <chr>         <int>
    ## 1 classic_bike  55536
    ## 2 electric_bike 43949

``` r
citi %>% # type of duration data in the data set --> trying to determine if time is in hr or min
  count(duration) %>%
  arrange(desc(duration))
```

    ## # A tibble: 97,274 × 2
    ##    duration     n
    ##       <dbl> <int>
    ##  1     239.     1
    ##  2     236.     1
    ##  3     232.     1
    ##  4     232.     1
    ##  5     231.     1
    ##  6     231.     1
    ##  7     230.     1
    ##  8     230.     1
    ##  9     229.     1
    ## 10     227.     1
    ## # ℹ 97,264 more rows
…
